{
  "meta": {
    "name": "world_demo",
    "author": "arhansen",
    "version": "0",
    "created": "20220108T00:00:00Z"
  },
  "units": "m",
  "padding": "0.05",
  "borders": [
    {
      "x": "2.5",
      "y": "0.05",
      "x_width": "5.0",
      "y_width": "0.1"
    },
    {
      "x": "2.5",
      "y": "4.95",
      "x_width": "5.0",
      "y_width": "0.1"
    },
    {
      "x": "0.05",
      "y": "2.5",
      "x_width": "0.1",
      "y_width": "5.0"
    },
    {
      "x": "4.95",
      "y": "2.5",
      "x_width": "0.1",
      "y_width": "5.0"
    }
  ],
  "dynamic": [
    {
      "label": "chair",
      "x": "1.0",
      "y": "1.0",
      "x_width": "0.4",
      "y_width": "0.4",
      "restitution": "0.9",
      "friction": "0.05",
      "air_friction": "1"
    },
    {
      "label": "desk",
      "x": "2.0",
      "y": "1.0",
      "x_width": "0.5",
      "y_width": "1.0",
      "restitution": "0.9",
      "friction": "0.05",
      "air_friction": "1"
    },
    {
      "label": "couch",
      "x": "3.0",
      "y": "2.0",
      "x_width": "0.5",
      "y_width": "1.0",
      "restitution": "0.9",
      "friction": "0.05",
      "air_friction": "1"
    }
  ],
  "actors": [
    {
      "label": "robot",
      "dimensions": {
        "length": "0.75",
        "width": "0.5"
      },
      "origin": {
        "x": "2.5",
        "y": "2.5"
      },
      "keyboard_bindings": [
        {
          "key": "w",
          "v": "1.5",
          "o": "0.0"
        },
        {
          "key": "s",
          "v": "-1.5",
          "o": "0.0"
        },
        {
          "key": "a",
          "v": "0.0",
          "o": "-0.02"
        },
        {
          "key": "d",
          "v": "0.0",
          "o": "0.02"
        },
        {
          "key": "space",
          "v": "0.0",
          "o": "0.0"
        }
      ]
    }
  ]
}